…
    ## [1] '0.1.0'

``` r
y <- c(44, 55, 43, 32, 67, 78)
z <- 0.05

scimple_ci(y, z) %>% 
  mutate(method=scimple_short_to_long[method]) -> cis

print(cis)
```

    ## # A tibble: 42 × 8
    ##                 method lower_limit upper_limit     adj_ll    adj_ul   volume inpmat alpha
    ##                  <chr>       <dbl>       <dbl>      <dbl>     <dbl>    <dbl>  <dbl> <dbl>
    ## 1  Fitzpatrick & Scott  0.08306258   0.1927995 0.08306258 0.1927995 1.75e-06     44  0.05
    ## 2  Fitzpatrick & Scott  0.11754534   0.2272823 0.11754534 0.2272823 1.75e-06     55  0.05
    ## 3  Fitzpatrick & Scott  0.07992778   0.1896647 0.07992778 0.1896647 1.75e-06     43  0.05
    ## 4  Fitzpatrick & Scott  0.04544502   0.1551819 0.04544502 0.1551819 1.75e-06     32  0.05
    ## 5  Fitzpatrick & Scott  0.15516289   0.2648998 0.15516289 0.2648998 1.75e-06     67  0.05
    ## 6  Fitzpatrick & Scott  0.18964565   0.2993826 0.18964565 0.2993826 1.75e-06     78  0.05
    ## 7              Goodman  0.09468368   0.1966413 0.09468368 0.1966413 1.55e-06     44  0.05
    ## 8              Goodman  0.12376893   0.2350489 0.12376893 0.2350489 1.55e-06     55  0.05
    ## 9              Goodman  0.09208527   0.1931040 0.09208527 0.1931040 1.55e-06     43  0.05
    ## 10             Goodman  0.06412671   0.1535697 0.06412671 0.1535697 1.55e-06     32  0.05
    ## # ... with 32 more rows
…
